<?xml version="1.0" encoding="utf-8"?>
<!-- Generator: Adobe Illustrator 21.0.0, SVG Export Plug-In . SVG Version: 6.00 Build 0)  -->
<svg version="1.1" id="Capa_1" xmlns="http://www.w3.org/2000/svg" xmlns:xlink="http://www.w3.org/1999/xlink" x="0px" y="0px"
	 width="362.8px" height="362.8px" viewBox="0 0 362.8 362.8" style="enable-background:new 0 0 362.8 362.8;" xml:space="preserve"
	>
<style type="text/css">
	.st0{fill:#FFFFFF;}
</style>
<g>
	<path class="st0" d="M362.6,204.6c0,24.5-0.2,49,0.1,73.6c0.1,6.8-2.1,11.1-7.8,14.9c-18.4,12.1-36.4,24.9-54.8,37
		c-3.1,2.1-8.5,3.4-11.5,2.1c-2.5-1.1-4.1-6.6-4.2-10.2c-0.4-22.2-0.6-44.5-0.1-66.7c0.6-26.2-0.6-52.4-0.3-78.7
		c0-3.7-1.5-8.1-3.8-10.9c-28.3-34.4-64.4-50.7-109.1-47.4c-36,2.7-65,18.6-87.6,46.5c-2.7,3.3-4.5,8.5-4.5,12.9
		c-0.3,46.3-0.2,92.5-0.2,138.8c0,2.3,0.1,4.6-0.1,6.8c-0.7,10.2-6.9,13.3-15.3,7.6c-19.3-13.1-38.7-26-57.6-39.5
		c-3.1-2.2-5.6-7.4-5.6-11.3c-0.4-50.6-0.4-101.1,0-151.7c0-3.6,2.6-8.4,5.5-10.4C42.6,92.2,79.6,67,116.7,41.7
		c19-13,38.2-25.7,57.1-38.9c5.6-3.9,10-3.6,15.6,0.2c54.8,37.5,109.7,74.8,164.7,112c5.9,4,8.9,8.4,8.7,16
		C362.3,155.6,362.6,180.1,362.6,204.6z M21.9,125.4c3,2.3,5,4.1,7.2,5.6c10.1,6.9,20.5,13.5,30.5,20.6c10,7.2,9.2,5.6,16.1-2.1
		c27.3-30.4,61.9-46.6,102.2-47.6c43.2-1,80.2,15.3,109.6,47.8c7.1,7.8,6.9,7.9,15.5,2.1c3.1-2.1,6.4-4,9.5-6.1
		c9.2-6.3,18.3-12.7,28.8-20c-10.8-7.4-20.1-13.9-29.5-20.3c-41.3-28.3-82.7-56.5-124-84.9c-4.7-3.2-8.4-2.6-12.9,0.5
		c-39,26.8-78.2,53.4-117.3,80.1C45.9,108.7,34.5,116.7,21.9,125.4z M15.6,140.7c0,5,0,7.9,0,10.9c0,39.2,0.2,78.4-0.2,117.6
		c-0.1,7.4,1.8,12,8.2,16c12.7,7.8,24.8,16.6,37.8,25.5c0.6-2.7,1.3-4.4,1.3-6c0.1-42.2,0.1-84.5-0.1-126.7c0-2.5-1.2-5.9-3.1-7.2
		C45.8,160.9,31.7,151.5,15.6,140.7z M347.3,140.5c-14.5,9.9-27,18.9-40.1,27.2c-5.4,3.4-7.4,7.3-7.4,13.5
		c0.2,39.9,0.1,79.9,0.1,119.8c0,2.8,0.6,5.7,1.1,9.8c13.8-9.5,26.1-18.5,39-26.5c5.8-3.6,7.4-7.7,7.3-14.1
		c-0.3-38.2-0.1-76.3-0.1-114.5C347.3,151.4,347.3,147.2,347.3,140.5z"/>
	<path class="st0" d="M180.8,315.9c-5.7-3.6-11.7-7.1-17.4-11c-14.9-10.2-29.7-20.5-44.6-30.7c-4.6-3.1-8.3-6.5-4.6-12.2
		c3.7-5.7,8.8-3.7,13.2-0.8c16,10.8,31.9,21.7,47.6,32.8c4.7,3.3,8.3,3.2,12.9,0c15.6-11,31.3-21.7,47-32.4c4.4-3,9.6-5.5,13.3-0.1
		c3.8,5.5,0.6,9.5-4.6,13c-18.5,12.4-36.8,25.2-55.3,37.7C186.4,313.6,184.1,314.4,180.8,315.9z"/>
	<path class="st0" d="M181.4,266.8c-2.5-1.2-4.9-1.9-6.9-3.3c-18.8-12.8-37.6-25.8-56.4-38.6c-4.5-3-7.3-6.6-3.6-11.9
		c3.6-5.2,8-3.7,12.4-0.7c15.7,10.7,31.6,21.2,47.1,32.2c5.5,3.9,9.5,4,15,0c15.2-11,30.9-21.3,46.4-31.9c4.2-2.9,8.8-5.2,12.5-0.3
		c4.2,5.5,1.2,9.6-3.9,13.1c-18.7,12.6-37.1,25.5-55.7,38.2C186.3,265.1,183.8,265.8,181.4,266.8z"/>
	<path class="st0" d="M249.8,316.5c-1.1,1.3-2.6,4.4-5,6.1c-19.3,13.4-38.8,26.6-58.5,39.4c-2.4,1.6-7.5,1.5-9.9,0
		c-19.7-12.8-39.1-26.1-58.5-39.4c-4.1-2.8-6.8-6.7-3.7-11.6c3.3-5.2,8-4.2,12.4-1.2c16.6,11.2,33.2,22.3,49.6,33.7
		c3.9,2.7,6.5,2.8,10.5-0.1c15.3-10.9,30.9-21.3,46.5-31.8c2.3-1.5,4.7-3.1,7.2-3.9C245.4,306.3,249.6,309.6,249.8,316.5z"/>
</g>
</svg>
