<?xml version="1.0" encoding="utf-8"?>
<!-- Generator: Adobe Illustrator 21.0.0, SVG Export Plug-In . SVG Version: 6.00 Build 0)  -->
<svg version="1.1" id="Capa_1" xmlns="http://www.w3.org/2000/svg" xmlns:xlink="http://www.w3.org/1999/xlink" x="0px" y="0px"
	 width="362.8px" height="362.8px" viewBox="0 0 362.8 362.8" style="enable-background:new 0 0 362.8 362.8;" xml:space="preserve"
	>
<style type="text/css">
	.st0{fill:#FFFFFF;}
</style>
<g transform="translate(0 1)">
	<g>
		<g>
			<path class="st0" d="M357.1,181.1L301.8,116c-4.4-4.7-10.2-7.5-15.9-7.5h-58.5c-10.2,0-17.8,8.8-17.8,19v83.5l-26-50.8l13.3-49.6
				c0.6-2.7,0-4.7-1.9-6.8l-38.1-40.7c-0.6-0.7-1.9-1.4-2.5-1.4L118,48.9c-0.4-0.2-0.7-0.5-1.1-0.6c-0.6-0.2-1.2-0.4-1.8-0.4
				l-17.9-6.4c-1.3,0-2.5-0.7-3.8,0l-28.9,8.4L82,17.7c1.3-2,1.3-4.7,0-6.8c-1.3-2-3.2-3.4-5.7-3.4H6.4C2.5,7.6,0,10.3,0,14.4v122
				v94.9v6.8v58.3c0,8.8,7,16.3,15.2,16.3h4.3c3,23.2,21.4,40.7,44,40.7s41-17.5,44-40.7h134.3c3,23.2,21.4,40.7,44,40.7
				s41-17.5,44-40.7h17c8.3,0,15.2-7.5,15.9-16.3v-92.2v-6.8v-0.7C362.8,190.6,360.9,185.2,357.1,181.1z M346.9,190.6h-92.8v-67.8
				h31.8c2.5,0,4.4,0.7,6.4,2.7L346.9,190.6z M205.1,231.3H108v-13.6c0,0,0.6,0,0.6-0.7l57.2-6.8c3.2,0,5.1-2,5.7-4.7l7-26.2
				L205.1,231.3z M38.1,231.3v-40.6l19.1,7.6v33H38.1z M69.9,194v-23.7c0-7.5,5.7-13.6,12.7-13.6c2.2,0,4.2,0.6,6,1.6
				c0.7,0.4,1.4,0.9,2,1.5c0.9,0.8,1.8,1.8,2.5,2.9c1.4,2.2,2.2,4.8,2.2,7.6v61H69.9V194z M183.6,110.6l-23.5,86.8l-51.5,6.1H108
				v-33.2c0-11.6-7-21.6-16.7-25.5l27.3-81.6L149.3,74L183.6,110.6z M95.3,55l11.1,3.9l-28.3,84.7c-11.8,2.3-20.9,13.4-20.9,26.7
				v13.6l-15.2-6.1l-28.4-42.4l16.9-60.7l22.2-6.8c0.7-0.2,1.2-0.6,1.7-0.9L95.3,55z M12.7,21.1h52.7L47.1,55l-23.5,6.9
				c-1.9,0.7-3.8,2.7-4.4,4.7l-6.4,22.6V21.1z M12.7,157.4l12.7,19v54.9H12.7V157.4z M63.5,339.8c-17.8,0-31.8-14.9-31.8-33.9
				s14-33.9,31.8-33.9s31.8,14.9,31.8,33.9C95.3,324.8,81.3,339.8,63.5,339.8z M285.9,339.8c-17.8,0-31.8-14.9-31.8-33.9
				s14-33.9,31.8-33.9c17.8,0,31.8,14.9,31.8,33.9C317.7,324.8,303.7,339.8,285.9,339.8z M346.9,299.1h-17
				c-3-23.2-21.4-40.7-44-40.7c-0.1,0-0.2,0-0.3,0c-0.1,0-0.2,0-0.3,0c-22.2,0-40.7,17.6-43.8,40.7H107.6
				c-2.8-21.7-19.2-38.5-39.9-40.5c-0.1,0-0.3,0-0.5,0c-0.5,0-1-0.1-1.6-0.1c-0.7,0-1.4-0.1-2.1-0.1s-1.4,0-2.1,0.1
				c-0.5,0-1,0.1-1.6,0.1c-0.2,0-0.3,0-0.5,0c-20.7,2-37,18.7-39.9,40.5h-4.3c-1.3,0-2.5-1.4-2.5-2.7v-51.5h19.1h31.8h38.1h120.7
				v-4.9c0.3-1.2,0.3-2.5,0-3.7v-108c0-3.4,2.5-5.4,5.1-5.4h14v69.8c0,6.1,5.1,11.5,10.8,11.5h97.2v20.3h-31.8
				c-3.8,0-6.4,2.7-6.4,6.8c0,4.1,2.5,6.8,6.4,6.8h31.8v58.3C349.5,297.7,348.2,299.1,346.9,299.1z"/>
			<path class="st0" d="M63.5,292.3c-7,0-12.7,6.1-12.7,13.6c0,7.5,5.7,13.6,12.7,13.6s12.7-6.1,12.7-13.6
				C76.2,298.4,70.5,292.3,63.5,292.3z"/>
			<path class="st0" d="M285.9,292.3c-7,0-12.7,6.1-12.7,13.6c0,7.5,5.7,13.6,12.7,13.6c7,0,12.7-6.1,12.7-13.6
				C298.6,298.4,292.9,292.3,285.9,292.3z"/>
		</g>
	</g>
</g>
</svg>
