<?xml version="1.0" encoding="utf-8"?>
<!-- Generator: Adobe Illustrator 21.0.0, SVG Export Plug-In . SVG Version: 6.00 Build 0)  -->
<svg version="1.1" id="Capa_1" xmlns="http://www.w3.org/2000/svg" xmlns:xlink="http://www.w3.org/1999/xlink" x="0px" y="0px"
	 width="362.8px" height="362.8px" viewBox="0 0 362.8 362.8" style="enable-background:new 0 0 362.8 362.8;" xml:space="preserve"
	>
<style type="text/css">
	.st0{fill:#FFFFFF;}
</style>
<path class="st0" d="M66.8,362.8h10.1v-56.5h62.5v56.5h10.1v-56.5H215v56.5h10.1v-56.5h69.7v56.5h10.1v-56.5h57.9v-15.8h-57.9V188
	h57.9v-15.8h-57.9V78.8h57.9V63.1h-57.9V0h-10.1v63.1h-69.7V0H215v63.1h-65.5V0h-10.1v63.1H76.8V0H66.8v63.1H0v15.8h66.8v93.4H0V188
	h66.8v102.5H0v15.8h66.8V362.8z M149.5,290.5V188H215v102.5H149.5z M294.8,290.5h-69.7V188h69.7V290.5z M294.8,78.8v93.4h-69.7V78.8
	C225.1,78.9,294.8,78.9,294.8,78.8z M215,78.8v93.4h-65.5V78.8C149.5,78.9,215,78.9,215,78.8z M76.8,78.8h62.5v93.4H76.8V78.8z
	 M76.8,188h62.5v102.5H76.8V188z"/>
</svg>
